[gd_scene load_steps=4 format=2]

[ext_resource path="res://scripts/PieceVisible.gd" type="Script" id=1]
[ext_resource path="res://imgs/pieces.png" type="Texture" id=2]

[sub_resource type="RectangleShape2D" id=1]
extents = Vector2( 48, 48 )

[node name="Piece" type="Area2D"]
script = ExtResource( 1 )

[node name="Sprite" type="Sprite" parent="."]
texture = ExtResource( 2 )
vframes = 2
hframes = 6

[node name="Area2D" type="CollisionShape2D" parent="."]
shape = SubResource( 1 )
[connection signal="input_event" from="." to="." method="_on_Piece_input_event"]
